<?xml version="1.0" encoding="UTF-8"?>
<svg width="59px" height="54px" viewBox="0 0 59 54" version="1.1" xmlns="http://www.w3.org/2000/svg" xmlns:xlink="http://www.w3.org/1999/xlink">
    <!-- Generator: Sketch 50.2 (55047) - http://www.bohemiancoding.com/sketch -->
    <title>Security/conseguir tus claves</title>
    <desc>Created with Sketch.</desc>
    <defs>
        <path d="M59,51.4275627 C59,52.7958815 57.4139699,53.9065879 55.4575938,53.9065879 L3.54289985,53.9065879 C1.58652278,53.9065879 0.000491666667,52.7958815 0.000491666667,51.4275627 L0.000491666667,2.57243727 C0.000491666667,1.20411851 1.5865218,0.0934121455 3.54289887,0.0934121455 L55.4575889,0.0934121455 C57.4139699,0.0934121455 59,1.20411851 59,2.57243727 L59,51.4275627" id="path-1"></path>
        <path d="M7.61855397,0.0646144364 L0.405526667,0.0646144364 C0.217493712,0.0644576959 0.0648254866,0.216317913 0.0642746,0.4040604 L0.0642746,8.76956269 C0.0643249998,8.85978687 0.100338645,8.94628102 0.164364711,9.00994962 C0.228390776,9.07361822 0.315163796,9.10922519 0.405526667,9.10890949 L8.81174833,9.10890949 C8.90197807,9.10917534 8.98859043,9.07351139 9.05240208,9.00981667 C9.11621374,8.94612195 9.15195803,8.85965347 9.15171813,8.76956269 L9.15171813,0.4040604 C9.15174397,0.314025829 9.11593412,0.227671433 9.05217181,0.164007374 C8.98840951,0.100343315 8.90192185,0.064588644 8.81174833,0.0646144364 L7.618552,0.0646144364" id="path-3"></path>
        <path d="M2.93766212,0.958535345 C4.0725694,0.958535345 4.92441533,1.55027716 4.92441533,3.50097807 L1.12015237,3.50097807 C1.12015237,1.5502752 1.8582817,0.958535345 2.93766212,0.958535345 M0.0976804,3.50097807 L5.9468873,3.50097807 C5.9468873,1.10516498 4.69826243,0.0525596727 2.93766212,0.0525596727 C1.23258867,0.0525596727 0.0976804,1.10516695 0.0976804,3.50097807" id="path-5"></path>
        <polyline id="path-7" points="2.11928 3.92933455 0.658931667 2.46858545 0.02006 3.13033091 2.12852333 5.23947273 6.64054833 0.657916364 5.99105667 0.00805090909 2.11928 3.92933455"></polyline>
    </defs>
    <g id="Page-1" stroke="none" stroke-width="1" fill="none" fill-rule="evenodd">
        <g id="Mail-INGRESO-HASH-VENCIDO-ACCESO-OK" transform="translate(-291.000000, -123.000000)">
            <g id="Security/conseguir-tus-claves" transform="translate(291.000000, 123.000000)">
                <g>
                    <path d="M58.99941,51.4275627 C58.99941,52.796177 57.4134792,53.9059968 55.4574964,53.9059968 L3.54230788,53.9059968 C1.58672043,53.9059968 0,52.796177 0,51.4275627 L0,2.57243727 C0,1.20382298 1.58672043,0.0934121455 3.54230788,0.0934121455 L55.4574945,0.0934121455 C57.4134772,0.0934121455 58.999408,1.20382298 58.999408,2.57243727 L58.99941,51.4275627 Z" id="Shape" fill="#F6F6F6" fill-rule="nonzero"></path>
                    <g id="Clipped">
                        <mask id="mask-2" fill="white">
                            <use xlink:href="#path-1"></use>
                        </mask>
                        <g id="Shape"></g>
                        <g id="Group" mask="url(#mask-2)" fill-rule="nonzero">
                            <g transform="translate(-9.538333, -6.381818)">
                                <rect id="Rectangle-path" fill="#004283" x="0.0460209833" y="0.0536367273" width="76.8008959" height="14.4597636"></rect>
                                <path d="M52.8397825,10.366002 C53.0388025,11.2187362 52.5121265,12.0722329 51.6598021,12.2782009 C51.2503783,12.3715598 50.8205653,12.2976367 50.4660222,12.0728839 C50.1114791,11.8481311 49.8616261,11.4911987 49.7720706,11.0815256 C49.5735508,10.2282776 50.1008616,9.37471744 50.9536292,9.16893196 C51.3628978,9.07582655 51.7924607,9.14993525 52.1467096,9.37476361 C52.5009585,9.59959196 52.7504961,9.95648261 52.8397825,10.366002" id="Shape" fill="#FFDE8A"></path>
                                <path d="M57.6362386,10.366002 C57.8352685,11.2188637 57.3083683,12.0724384 56.455864,12.2782009 C56.0464888,12.3715534 55.6167247,12.2976202 55.2622441,12.07286 C54.9077636,11.8480999 54.6579899,11.4911689 54.5685267,11.0815256 C54.3700068,10.2282782 54.8973166,9.37471832 55.7500833,9.16893196 C56.1593599,9.07572131 56.5889732,9.14978556 56.9432484,9.37463061 C57.2975236,9.59947567 57.5470423,9.95643075 57.6362366,10.366002" id="Shape" fill="#FF979A"></path>
                                <path d="M62.2855428,10.366002 C62.4838868,11.2191297 61.9566032,12.0724695 61.1039842,12.2782009 C60.6946696,12.3713892 60.2650299,12.2973793 59.9106513,12.0726369 C59.5562727,11.8478945 59.30655,11.4910613 59.2170413,11.0815256 C59.019216,10.2281396 59.5466859,9.37489134 60.3993885,9.16893196 C60.8086454,9.07598437 61.2381328,9.1501597 61.5923424,9.37496301 C61.946552,9.59976631 62.1961181,9.95656033 62.2855428,10.366002" id="Shape" fill="#5ECA98"></path>
                            </g>
                        </g>
                    </g>
                    <path d="M49.2502697,39.8399384 C49.2510422,41.7693792 47.6853547,43.3342419 45.7529365,43.3354291 L14.278116,43.3354291 C12.3460254,43.3333843 10.7808416,41.7689549 10.7808416,39.8398402 C10.7808416,37.9107255 12.3460254,36.3462961 14.278116,36.3442513 L45.7529365,36.3442513 C47.6854514,36.3453908 49.2511986,37.9104011 49.2502697,39.8399384 Z" id="Shape" fill="#0086CD" fill-rule="nonzero"></path>
                    <path d="M17.4263088,39.7584003 C17.4251096,40.6953903 16.6636159,41.4541225 15.7251794,41.4533606 C14.786743,41.4525987 14.0264861,40.6926311 14.0268129,39.7556404 C14.0271398,38.8186496 14.7879267,38.059211 15.7263635,38.0591018 C16.1775131,38.0592525 16.6101126,38.2383966 16.9289383,38.5571009 C17.2477639,38.8758053 17.4266819,39.307946 17.4263088,39.7584003 Z" id="Shape" fill="#FFFFFF" fill-rule="nonzero"></path>
                    <path d="M24.5180252,39.7584003 C24.5166083,40.6951727 23.7551148,41.4535521 22.8168962,41.4525728 C21.8786777,41.4515935 21.118774,40.6916259 21.1193187,39.7548527 C21.1198634,38.8180794 21.8806505,38.0589934 22.8188695,38.0591018 C23.2699371,38.0592833 23.7024375,38.2384625 24.0211311,38.5571829 C24.3398247,38.8759032 24.5185769,39.308028 24.5180252,39.7584003 Z" id="Shape" fill="#FFFFFF" fill-rule="nonzero"></path>
                    <path d="M31.6105283,39.7584003 C31.6093291,40.6953909 30.8478346,41.4541232 29.9093976,41.4533606 C28.9709606,41.452598 28.2107041,40.692629 28.2110324,39.7556377 C28.2113607,38.8186465 28.9721496,38.0592088 29.9105869,38.0591018 C30.3617358,38.0592535 30.7943343,38.2383981 31.1131592,38.5571023 C31.431984,38.8758065 31.6109014,39.3079467 31.6105283,39.7584003 Z" id="Shape" fill="#FFFFFF" fill-rule="nonzero"></path>
                    <path d="M38.7022487,39.7584003 C38.7008322,40.6951735 37.9393383,41.4535539 37.001119,41.4525748 C36.0628997,41.4515956 35.3029953,40.6916273 35.3035402,39.7548533 C35.3040851,38.8180793 36.0648731,38.0589928 37.0030929,38.0591018 C37.4541606,38.0592833 37.886661,38.2384625 38.2053546,38.5571829 C38.5240481,38.8759032 38.7028003,39.308028 38.7022487,39.7584003 Z" id="Shape" fill="#FFFFFF" fill-rule="nonzero"></path>
                    <path d="M45.7947547,39.7584003 C45.7935554,40.6954416 45.0319816,41.4541949 44.0934939,41.4533605 C43.1550061,41.4525261 42.3947869,40.6924198 42.3952589,39.7553779 C42.3957309,38.818336 43.1567156,38.0589936 44.0952037,38.0591018 C44.5462918,38.0593348 44.9788028,38.2385178 45.297548,38.5572156 C45.6162932,38.8759135 45.79515,39.3080074 45.7947547,39.7584003 Z" id="Shape" fill="#FFFFFF" fill-rule="nonzero"></path>
                    <ellipse id="Oval" fill="#00E1D1" fill-rule="nonzero" cx="30.0770702" cy="23.492594" rx="9.28519383" ry="9.28329513"></ellipse>
                    <path d="M33.0871833,20.2905619 L25.8739583,20.2905619 C25.7837596,20.2903293 25.6971652,20.3258946 25.6332371,20.3894287 C25.5693089,20.4529628 25.5332873,20.5392577 25.5331016,20.6293176 L25.5331016,28.9956083 C25.5330035,29.0857914 25.5689216,29.1722917 25.6329002,29.2359498 C25.6968787,29.2996079 25.783637,29.3351694 25.8739583,29.3347577 L34.2797867,29.3347577 C34.3700674,29.3350353 34.4567478,29.2994306 34.5206972,29.2358016 C34.5846467,29.1721726 34.620608,29.0857503 34.6206444,28.9956083 L34.6206444,20.6293176 C34.620459,20.5392575 34.5844373,20.4529622 34.5205089,20.389428 C34.4565804,20.3258938 34.3699856,20.2903288 34.2797867,20.2905619 L33.0871833,20.2905619 Z" id="Shape" fill="#FFFFFF" fill-rule="nonzero"></path>
                    <g id="Clipped" transform="translate(25.468333, 20.225455)">
                        <mask id="mask-4" fill="white">
                            <use xlink:href="#path-3"></use>
                        </mask>
                        <g id="Shape"></g>
                        <rect id="Rectangle-path" fill="#FFFFFF" fill-rule="nonzero" mask="url(#mask-4)" x="-0.218886067" y="-0.218502655" width="9.65524478" height="9.61220324"></rect>
                    </g>
                    <path d="M30.0770701,17.7473307 C31.2128654,17.7473307 32.0650073,18.3397598 32.0650073,20.2905619 L28.2599557,20.2905619 C28.2599557,18.3397598 28.9976897,17.7473307 30.0770701,17.7473307 M27.2369901,20.2905619 L33.0871833,20.2905619 C33.0871833,17.8948469 31.8377698,16.8417488 30.0770702,16.8417488 C28.3731797,16.8417488 27.2369901,17.8948469 27.2369901,20.2905619" id="Shape" fill="#FFFFFF" fill-rule="nonzero"></path>
                    <g id="Clipped" transform="translate(27.140000, 16.789091)">
                        <mask id="mask-6" fill="white">
                            <use xlink:href="#path-5"></use>
                        </mask>
                        <g id="Shape"></g>
                        <rect id="Rectangle-path" fill="#FFFFFF" fill-rule="nonzero" mask="url(#mask-6)" x="-0.186662233" y="-0.230951127" width="6.41828747" height="4.01563833"></rect>
                    </g>
                    <polygon id="Shape" fill="#00E1D1" fill-rule="nonzero" points="28.8659467 26.11872 27.4061883 24.6581673 26.7663333 25.3187345 28.8753867 27.4284655 33.3874117 22.8464182 32.737625 22.1968473"></polygon>
                    <g id="Clipped" transform="translate(26.746667, 22.189091)">
                        <mask id="mask-8" fill="white">
                            <use xlink:href="#path-7"></use>
                        </mask>
                        <g id="Shape"></g>
                        <rect id="Rectangle-path" fill="#00E1D1" fill-rule="nonzero" mask="url(#mask-8)" x="-0.17797645" y="-0.190962655" width="7.01675987" height="5.62925945"></rect>
                    </g>
                </g>
            </g>
        </g>
    </g>
</svg>